[
    {
        "name": "Home",
        "description": "",
        "url": "/home",
        "hidden": false,
        "privateLayout": false,
        "portletId": "com_doneby_image_gallery_portlet_ImageGalleryPortlet"
    },
    {
        "name": "Propriedades",
        "description": "",
        "url": "/propriedades",
        "hidden": false,
        "privateLayout": false
    },
    {
        "name": "Sobre nós",
        "description": "",
        "url": "/sobre-nos",
        "hidden": false,
        "privateLayout": false
    },
    {
        "name": "Contactos",
        "description": "/contactos",
        "url": "",
        "hidden": false,
        "privateLayout": false
    },
    {
        "name": "Termos e condições",
        "description": "/termos-e-condicoes",
        "url": "",
        "hidden": true,
        "privateLayout": false
    },
    {
        "name": "Política de Privacidade",
        "description": "/politica-de-privacidade",
        "url": "",
        "hidden": true,
        "privateLayout": false
    },
    {
        "name": "Login",
        "description": "",
        "url": "/login",
        "hidden": true,
        "privateLayout": false,
        "portletId": "portlet_com_liferay_login_web_portlet_LoginPortlet"
    } 

    
]