<?xml version="1.0" encoding="UTF-8"?>
<svg width="58px" height="51px" viewBox="0 0 58 51" version="1.1" xmlns="http://www.w3.org/2000/svg" xmlns:xlink="http://www.w3.org/1999/xlink">
    <!-- Generator: Sketch 47.1 (45422) - http://www.bohemiancoding.com/sketch -->
    <title>Construction - Flat - 081 - Digger</title>
    <desc>Created with Sketch.</desc>
    <defs></defs>
    <g id="Page-1" stroke="none" stroke-width="1" fill="none" fill-rule="evenodd">
        <g id="Construction---Flat---081---Digger" fill-rule="nonzero">
            <polygon id="Shape" fill="#E4C05C" points="58 15 58 41 54 41 54 19 44.83 19 44.2 19.63 36.89 26.93 35 25.999 34.07 24.11 42.31 15.86 43.17 15"></polygon>
            <path d="M38,31 L38,43 L5,43 L5,29 L37.75,29 C37.9148565,29.6539255 37.9988177,30.3256152 38,31 Z" id="Shape" fill="#F3D55B"></path>
            <path d="M38,31 L27,31 L27,23 L30,23 C33.6487637,23.0002793 36.8357582,25.4676299 37.75,29 C37.9148565,29.6539255 37.9988177,30.3256152 38,31 Z" id="Shape" fill="#B19046"></path>
            <rect id="Rectangle-path" fill="#7F8C8D" x="0" y="41" width="42" height="10" rx="4"></rect>
            <path d="M29,18.21 L29,31 L3,31 C2.20402989,31.0010474 1.44035941,30.6853133 0.877523063,30.1224769 C0.314686711,29.5596406 -0.00104743889,28.7959701 5.55111512e-16,28 L5.55111512e-16,1 C0.00159825193,0.448378624 0.448378624,0.00159825193 1,3.19849805e-16 L20.35,3.19849805e-16 C20.7438581,-0.00243327125 21.1014904,0.229438201 21.26,0.59 L28.91,17.81009 C28.9703048,17.9347158 29.0011005,18.0715549 29,18.21 Z" id="Shape" fill="#E4C05C"></path>
            <path d="M0,4 L10,4 C10.5522847,4 11,4.44771525 11,5 L11,17 C11,17.5522847 10.5522847,18 10,18 L0,18 L0,4 Z" id="Shape" fill="#E6E7E8"></path>
            <path d="M29,18 L16,18 C15.4477153,18 15,17.5522847 15,17 L15,5 C15,4.44771525 15.4477153,4 16,4 L22.78,4 L29,18 Z" id="Shape" fill="#E6E7E8"></path>
            <circle id="Oval" fill="#95A5A5" cx="6" cy="46" r="2"></circle>
            <circle id="Oval" fill="#95A5A5" cx="36" cy="46" r="2"></circle>
            <rect id="Rectangle-path" fill="#BDC3C7" x="15" y="31" width="10" height="10"></rect>
            <path d="M13,22 C12.7347624,22.000069 12.4803684,21.8947343 12.292817,21.707183 C12.1052657,21.5196316 11.999931,21.2652376 12,21 L12,20 C12,19.4477153 12.4477153,19 13,19 C13.5522847,19 14,19.4477153 14,20 L14,21 C14.000069,21.2652376 13.8947343,21.5196316 13.707183,21.707183 C13.5196316,21.8947343 13.2652376,22.000069 13,22 L13,22 Z" id="Shape" fill="#B19046"></path>
            <path d="M13,27 C12.7347624,27.000069 12.4803684,26.8947343 12.292817,26.707183 C12.1052657,26.5196316 11.999931,26.2652376 12,26 L12,25 C12,24.4477153 12.4477153,24 13,24 C13.5522847,24 14,24.4477153 14,25 L14,26 C14.000069,26.2652376 13.8947343,26.5196316 13.707183,26.707183 C13.5196316,26.8947343 13.2652376,27.000069 13,27 L13,27 Z" id="Shape" fill="#B19046"></path>
            <path d="M14,30 L14,31 L12,31 L12,30 C12,29.4477153 12.4477153,29 13,29 C13.5522847,29 14,29.4477153 14,30 Z" id="Shape" fill="#B19046"></path>
            <path d="M54,51 L45,51 L54,37 L58,37 L58,47 C58,49.209139 56.209139,51 54,51 Z" id="Shape" fill="#95A5A5"></path>
            <polygon id="Shape" fill="#B19046" points="58 15 58 16.42 54 20.42 54 19 52.58 19 56.58 15"></polygon>
            <polygon id="Shape" fill="#B19046" points="46.12 19 44.83 19 44.2 19.63 42.31 15.86 43.17 15 44.12 15"></polygon>
            <rect id="Rectangle-path" fill="#95A5A5" x="15" y="33" width="10" height="2"></rect>
            <rect id="Rectangle-path" fill="#95A5A5" x="15" y="37" width="10" height="2"></rect>
            <path d="M4,10 C3.5956041,9.99991365 3.23106595,9.7562725 3.07632202,9.38265456 C2.92157809,9.00903662 3.00709208,8.57899425 3.293,8.293 L4.293,7.293 C4.68448095,6.90854701 5.31264252,6.91139172 5.7006254,7.2993746 C6.08860828,7.68735748 6.09145299,8.31551905 5.707,8.707 L4.707,9.707 C4.51970976,9.89485209 4.26526582,10.0003006 4,10 Z" id="Shape" fill="#BDC3C7"></path>
            <path d="M4,15 C3.5956041,14.9999137 3.23106595,14.7562725 3.07632202,14.3826546 C2.92157809,14.0090366 3.00709208,13.5789943 3.293,13.293 L6.293,10.293 C6.68448095,9.90854701 7.31264252,9.91139172 7.7006254,10.2993746 C8.08860828,10.6873575 8.09145299,11.3155191 7.707,11.707 L4.707,14.707 C4.51970976,14.8948521 4.26526582,15.0003006 4,15 Z" id="Shape" fill="#BDC3C7"></path>
        </g>
    </g>
</svg>